{
  "types": {
    "BUILD": {
      "description": "Changes that affect the build configuration or internal/external dependencies.",
      "scopes": {
        "configuration": {},
        "dependencies": {}
      }
    },
    "CI": {
      "description": "Changes that affect CI configuration.",
      "scopes": {
        "build": {},
        "test": {},
        "analysis": {},
        "acceptance": {},
        "integration": {},
        "deployment": {}
      }
    },
    "DOCS": {
      "description": "Changes that affect documentation."
    },
    "FEAT": {
      "description": "Changes that introduce a new feature affecting the end user.",
      "scopes": {
        "foundation": {}
      }
    },
    "FIX": {
      "description": "Changes that fix a bug affecting the end user.",
      "scopes": {
        "foundation": {}
      }
    },
    "CHORE": {
      "description": "Changes that do not affect the end user.",
      "scopes": {
        "foundation": {}
      }
    },
    "PERF": {
      "description": "Changes that improve performance."
    },
    "REFACTOR": {
      "description": "Changes that neither add a new feature nor fix a bug but are affecting the end user."
    },
    "REVERT": {
      "description": "Changes that revert a previous commit."
    },
    "STYLE": {
      "description": "Changes that affect code style only (white-spaces, formatting, etc.)."
    },
    "TEST": {
      "description": "Changes that add missing tests or update existing tests.",
      "scopes": {
        "foundation": {}
      }
    }
  },
  "footerTypes": [
    {
      "name": "Resolves",
      "description": "The commit resolves issue(s)."
    },
    {
      "name": "Closes",
      "description": "The commit closes issue(s)."
    },
    {
      "name": "Fixes",
      "description": "The commit fixes issue(s)."
    },
    {
      "name": "BREAKING CHANGE",
      "description": "The commit introduces breaking API changes."
    }
  ]
}