-----BEGIN PGP SIGNATURE-----
Version: BCPG v1.64

iQGcBAABCgAGBQJg1w8rAAoJEDdwF3BqJd4k19gMAI6QLpsDP9hNPBAP4z6n8hrq
+IMdA8gWpZKNFIzTVrkFcRyUKixS7h84R09XGJUC3SJ2Bo1XdHuiXP60b6HBtwoE
zSf7YkZhyeMPMx/oRTT1aC8bXxcI1JuiOww6DXVxn16Cqcm2tnvvo/wa7DNUWj37
5E0S+TwR1la0kFVabbeloFkV0F5Q3S29IokgguG0L1aJjeRK8Sse8i2a0RIYykun
leFnrTUu9mw+/TV7izTZiJCTeJWXI8m5KQ3bxEny0AihB3Rrh9jHskgibcXredtG
GgPVKHRKU49LzTm485bHTM5w57gIcJRUySgbKU5S0cqNKNPX1PA1VBS+nGMngHBp
4ZQ+e8teoIaoxH/BIAhMYOuZnaXBKm/UdewbOxP4Gp9kb0Ijywlkh0yzC0z8EQgf
l7xohctwSaovgOQy4YnDAhj8UPt5LuJXkt3jTWepPctucs46wQq7sK2BbjeSiNlW
V55RiNyXNifTfLOQvJ0cvYj26CHqn0jPZECKJyaBSA==
=0A6v
-----END PGP SIGNATURE-----
